C:\Users\andhika\Documents\workspace\PSPTugas\src\main\java\com\example\service\UnivService.java
C:\Users\andhika\Documents\workspace\PSPTugas\src\main\java\com\example\controller\RestControllerPeserta.java
C:\Users\andhika\Documents\workspace\PSPTugas\src\main\java\com\example\service\UnivServiceDatabase.java
C:\Users\andhika\Documents\workspace\PSPTugas\src\main\java\com\example\controller\ProdiController.java
C:\Users\andhika\Documents\workspace\PSPTugas\src\main\java\com\example\controller\ErrorPageController.java
C:\Users\andhika\Documents\workspace\PSPTugas\src\main\java\com\example\service\PesertaServiceDatabase.java
C:\Users\andhika\Documents\workspace\PSPTugas\src\main\java\com\example\controller\PesertaController.java
C:\Users\andhika\Documents\workspace\PSPTugas\src\main\java\com\example\service\PesertaService.java
C:\Users\andhika\Documents\workspace\PSPTugas\src\main\java\com\example\service\ProdiServiceDatabase.java
C:\Users\andhika\Documents\workspace\PSPTugas\src\main\java\com\example\service\ProdiService.java
C:\Users\andhika\Documents\workspace\PSPTugas\src\main\java\com\example\model\ProdiModel.java
C:\Users\andhika\Documents\workspace\PSPTugas\src\main\java\com\example\model\UnivModel.java
C:\Users\andhika\Documents\workspace\PSPTugas\src\main\java\com\example\controller\UnivController.java
C:\Users\andhika\Documents\workspace\PSPTugas\src\main\java\com\example\dao\PesertaMapper.java
C:\Users\andhika\Documents\workspace\PSPTugas\src\main\java\com\example\dao\UnivMapper.java
C:\Users\andhika\Documents\workspace\PSPTugas\src\main\java\com\example\model\PesertaModel.java
C:\Users\andhika\Documents\workspace\PSPTugas\src\main\java\com\example\dao\ProdiMapper.java
C:\Users\andhika\Documents\workspace\PSPTugas\src\main\java\com\example\PdbTugasApplication.java
C:\Users\andhika\Documents\workspace\PSPTugas\src\main\java\com\example\controller\RestControllerProdi.java
